-------------------------------------------------------------------------------
Test set: com.cz4r.kenzan.KenzanApplicationTests
-------------------------------------------------------------------------------
Tests run: 1, Failures: 0, Errors: 0, Skipped: 0, Time elapsed: 6.265 s - in com.cz4r.kenzan.KenzanApplicationTests
